{
    "key": "group_53ea0fe5c5771",
    "title": "Gallery",
    "fields": [
        {
            "key": "field_53ea101a804a4",
            "label": "Galerie",
            "name": "galerie",
            "type": "repeater",
            "instructions": "",
            "required": 0,
            "conditional_logic": 0,
            "wrapper": {
                "width": "",
                "class": "",
                "id": ""
            },
            "min": 0,
            "max": 0,
            "layout": "table",
            "button_label": "Add Row",
            "collapsed": "",
            "sub_fields": [
                {
                    "key": "field_53ea1105474c0",
                    "label": "Galerie Bild",
                    "name": "galerie_bild",
                    "type": "image",
                    "instructions": "",
                    "required": 0,
                    "conditional_logic": 0,
                    "wrapper": {
                        "width": "",
                        "class": "",
                        "id": ""
                    },
                    "return_format": "array",
                    "preview_size": "thumbnail",
                    "library": "all",
                    "min_width": 0,
                    "min_height": 0,
                    "min_size": 0,
                    "max_width": 0,
                    "max_height": 0,
                    "max_size": 0,
                    "mime_types": ""
                }
            ]
        }
    ],
    "location": [
        [
            {
                "param": "options_page",
                "operator": "==",
                "value": "static-content-settings"
            }
        ]
    ],
    "menu_order": 0,
    "position": "normal",
    "style": "default",
    "label_placement": "top",
    "instruction_placement": "label",
    "hide_on_screen": "",
    "active": 1,
    "description": "",
    "modified": 1515538759
}