{
    "key": "group_553df1acf30b6",
    "title": "Team",
    "fields": [
        {
            "key": "field_553df1ba4b484",
            "label": "Team Bereich",
            "name": "team_section",
            "type": "flexible_content",
            "instructions": "",
            "required": 0,
            "conditional_logic": 0,
            "wrapper": {
                "width": "",
                "class": "",
                "id": ""
            },
            "button_label": "Eintrag hinzufügen",
            "min": "",
            "max": "",
            "layouts": [
                {
                    "key": "553df215a0c9f",
                    "name": "abteilung",
                    "label": "Abteilung",
                    "display": "row",
                    "sub_fields": [
                        {
                            "key": "field_553df25c4b485",
                            "label": "Titel",
                            "name": "titel",
                            "type": "text",
                            "instructions": "",
                            "required": 0,
                            "conditional_logic": 0,
                            "wrapper": {
                                "width": "",
                                "class": "",
                                "id": ""
                            },
                            "default_value": "",
                            "placeholder": "",
                            "prepend": "",
                            "append": "",
                            "maxlength": "",
                            "readonly": 0,
                            "disabled": 0
                        },
                        {
                            "key": "field_553df26d4b486",
                            "label": "Team-Mitglied",
                            "name": "team-mitglied",
                            "type": "repeater",
                            "instructions": "",
                            "required": 0,
                            "conditional_logic": 0,
                            "wrapper": {
                                "width": "",
                                "class": "",
                                "id": ""
                            },
                            "min": 0,
                            "max": 0,
                            "layout": "table",
                            "button_label": "Eintrag hinzufügen",
                            "collapsed": "",
                            "sub_fields": [
                                {
                                    "key": "field_553df2844b487",
                                    "label": "Portrait-Bild",
                                    "name": "portrait",
                                    "type": "image",
                                    "instructions": "",
                                    "required": 0,
                                    "conditional_logic": 0,
                                    "wrapper": {
                                        "width": "",
                                        "class": "",
                                        "id": ""
                                    },
                                    "return_format": "url",
                                    "preview_size": "thumbnail",
                                    "library": "all",
                                    "min_width": 0,
                                    "min_height": 0,
                                    "min_size": 0,
                                    "max_width": 0,
                                    "max_height": 0,
                                    "max_size": 0,
                                    "mime_types": ""
                                },
                                {
                                    "key": "field_553df2994b488",
                                    "label": "Name",
                                    "name": "team-name",
                                    "type": "text",
                                    "instructions": "",
                                    "required": 0,
                                    "conditional_logic": 0,
                                    "wrapper": {
                                        "width": "",
                                        "class": "",
                                        "id": ""
                                    },
                                    "default_value": "",
                                    "placeholder": "",
                                    "prepend": "",
                                    "append": "",
                                    "maxlength": "",
                                    "readonly": 0,
                                    "disabled": 0
                                },
                                {
                                    "key": "field_553df2cb4b48a",
                                    "label": "Persönliche Daten",
                                    "name": "personliche_daten",
                                    "type": "wysiwyg",
                                    "instructions": "",
                                    "required": 0,
                                    "conditional_logic": 0,
                                    "wrapper": {
                                        "width": "",
                                        "class": "",
                                        "id": ""
                                    },
                                    "default_value": "",
                                    "tabs": "all",
                                    "toolbar": "full",
                                    "media_upload": 1,
                                    "delay": 0
                                }
                            ]
                        }
                    ],
                    "min": "",
                    "max": ""
                },
                {
                    "key": "553e01f1e53e3",
                    "name": "abteilung_solo",
                    "label": "Abteilung Einzeln",
                    "display": "row",
                    "sub_fields": [
                        {
                            "key": "field_553e01f1e53e4",
                            "label": "Titel",
                            "name": "titel_solo",
                            "type": "text",
                            "instructions": "",
                            "required": 0,
                            "conditional_logic": 0,
                            "wrapper": {
                                "width": "",
                                "class": "",
                                "id": ""
                            },
                            "default_value": "",
                            "placeholder": "",
                            "prepend": "",
                            "append": "",
                            "maxlength": "",
                            "readonly": 0,
                            "disabled": 0
                        },
                        {
                            "key": "field_553e01f1e53e5",
                            "label": "Team-Mitglied",
                            "name": "team-mitglied_s",
                            "type": "repeater",
                            "instructions": "",
                            "required": 0,
                            "conditional_logic": 0,
                            "wrapper": {
                                "width": "",
                                "class": "",
                                "id": ""
                            },
                            "min": 0,
                            "max": 0,
                            "layout": "table",
                            "button_label": "Eintrag hinzufügen",
                            "collapsed": "",
                            "sub_fields": [
                                {
                                    "key": "field_553e02827571a",
                                    "label": "Portrait",
                                    "name": "portrait_img_s",
                                    "type": "image",
                                    "instructions": "",
                                    "required": 0,
                                    "conditional_logic": 0,
                                    "wrapper": {
                                        "width": "",
                                        "class": "",
                                        "id": ""
                                    },
                                    "return_format": "url",
                                    "preview_size": "thumbnail",
                                    "library": "all",
                                    "min_width": 0,
                                    "min_height": 0,
                                    "min_size": 0,
                                    "max_width": 0,
                                    "max_height": 0,
                                    "max_size": 0,
                                    "mime_types": ""
                                },
                                {
                                    "key": "field_553e02957571b",
                                    "label": "Name",
                                    "name": "name_s",
                                    "type": "text",
                                    "instructions": "",
                                    "required": 0,
                                    "conditional_logic": 0,
                                    "wrapper": {
                                        "width": "",
                                        "class": "",
                                        "id": ""
                                    },
                                    "default_value": "",
                                    "placeholder": "",
                                    "prepend": "",
                                    "append": "",
                                    "maxlength": "",
                                    "readonly": 0,
                                    "disabled": 0
                                },
                                {
                                    "key": "field_553e02ea7571c",
                                    "label": "Persönliche Informationen",
                                    "name": "personliche_informationen",
                                    "type": "wysiwyg",
                                    "instructions": "",
                                    "required": 0,
                                    "conditional_logic": 0,
                                    "wrapper": {
                                        "width": "",
                                        "class": "",
                                        "id": ""
                                    },
                                    "default_value": "",
                                    "tabs": "all",
                                    "toolbar": "full",
                                    "media_upload": 1,
                                    "delay": 0
                                }
                            ]
                        }
                    ],
                    "min": "",
                    "max": ""
                }
            ]
        }
    ],
    "location": [
        [
            {
                "param": "page_template",
                "operator": "==",
                "value": "template-team.php"
            }
        ]
    ],
    "menu_order": 0,
    "position": "normal",
    "style": "default",
    "label_placement": "top",
    "instruction_placement": "label",
    "hide_on_screen": "",
    "active": 1,
    "description": "",
    "modified": 1515538834
}